/* XPM */
static const char * other_unused_xpm[] = {
"24 16 33 1",
" 	c None",
".	c #EFEFEF",
"+	c #E7E7E7",
"@	c #DEDEDE",
"#	c #F7F7F7",
"$	c #D6D6D6",
"%	c #E9E9E9",
"&	c #FFFFFF",
"*	c #FAFAFA",
"=	c #DFDFDF",
"-	c #B5B5B5",
";	c #A9A9A5",
">	c #A2A2A2",
",	c #A5A5A5",
"'	c #A9A9A9",
")	c #898989",
"!	c #B9B9B9",
"~	c #E3E3E3",
"{	c #F0F0F0",
"]	c #D2D2D2",
"^	c #B1B1B1",
"/	c #C6C6C6",
"(	c #F5F5F5",
"_	c #ECECEC",
":	c #AEAEAE",
"<	c #BEBEBE",
"[	c #CDCDCD",
"}	c #DADADA",
"|	c #C2C2C2",
"1	c #CECECE",
"2	c #C9C9C9",
"3	c #9E9E9E",
"4	c #9A9A9A",
".+.+@.+....++.+..@...+.+",
".#...@@@$%@@@@$@@+@+....",
"&#*=-;>,,,'))>',,>,!~##&",
"#{]^/+(**********(_/:$+.",
"@~^<~(**(*(*(&((**(~<^~+",
".$-]~+++__++_++_+_+=]-[+",
".]/}==~~~~=~==~=~~==$|$.",
"@1|~~+__{____{___+++~|1@",
"$2!=_{*&**&*******{+~<2@",
"@$!/_(&&&&&&&&&&&&(_/!$+",
"._1^<=*&&&&&&&&&&*}<^2@#",
"+@=/-,344444444443>-/=@+",
"@@_=]2||||/<|||||/2]}$@@",
"@+@@@$$$11$$$$1$1$$@@+++",
".##..++..#..+....##..#..",
"@@@+@+@+@@@.@+@+@@@+@@@+"};
